,SANGER_SAMPLE_ID,SUPPLIER_SAMPLE_NAME,PLATE,COMMON_NAME,CELL_NAME,AGE,SEX
1,5317STDY7723849,F_MPP_A1,PLATE 3 - SAMPLE 3,femur MPP A1,X5317STDY7723849,20 pcw,male
2,5317STDY7723850,F_MPP_A2,PLATE 3 - SAMPLE 3,femur MPP A2,X5317STDY7723850,20 pcw,male
3,5317STDY7723851,F_MPP_A3,PLATE 3 - SAMPLE 3,femur MPP A3,X5317STDY7723851,20 pcw,male
4,5317STDY7723852,F_MPP_A4,PLATE 3 - SAMPLE 3,femur MPP A4,X5317STDY7723852,20 pcw,male
5,5317STDY7723853,F_MPP_A5,PLATE 3 - SAMPLE 3,femur MPP A5,X5317STDY7723853,20 pcw,male
6,5317STDY7723854,F_MPP_A6,PLATE 3 - SAMPLE 3,femur MPP A6,X5317STDY7723854,20 pcw,male
7,5317STDY7723855,F_MPP_A7,PLATE 3 - SAMPLE 3,femur MPP A7,X5317STDY7723855,20 pcw,male
8,5317STDY7723856,F_MPP_A8,PLATE 3 - SAMPLE 3,femur MPP A8,X5317STDY7723856,20 pcw,male
9,5317STDY7723857,F_MPP_A9,PLATE 3 - SAMPLE 3,femur MPP A9,X5317STDY7723857,20 pcw,male
10,5317STDY7723858,F_MPP_A10,PLATE 3 - SAMPLE 3,femur MPP A10,X5317STDY7723858,20 pcw,male
11,5317STDY7723859,F_MPP_A11,PLATE 3 - SAMPLE 3,femur MPP A11,X5317STDY7723859,20 pcw,male
12,5317STDY7723860,F_MPP_A12,PLATE 3 - SAMPLE 3,femur MPP A12,X5317STDY7723860,20 pcw,male
13,5317STDY7723861,F_MPP_B1,PLATE 3 - SAMPLE 3,femur MPP B1,X5317STDY7723861,20 pcw,male
14,5317STDY7723862,F_MPP_B2,PLATE 3 - SAMPLE 3,femur MPP B2,X5317STDY7723862,20 pcw,male
15,5317STDY7723863,F_MPP_B3,PLATE 3 - SAMPLE 3,femur MPP B3,X5317STDY7723863,20 pcw,male
16,5317STDY7723864,F_MPP_B4,PLATE 3 - SAMPLE 3,femur MPP B4,X5317STDY7723864,20 pcw,male
17,5317STDY7723865,F_MPP_B5,PLATE 3 - SAMPLE 3,femur MPP B5,X5317STDY7723865,20 pcw,male
18,5317STDY7723866,F_MPP_B6,PLATE 3 - SAMPLE 3,femur MPP B6,X5317STDY7723866,20 pcw,male
19,5317STDY7723867,F_MPP_B7,PLATE 3 - SAMPLE 3,femur MPP B7,X5317STDY7723867,20 pcw,male
20,5317STDY7723868,F_MPP_B8,PLATE 3 - SAMPLE 3,femur MPP B8,X5317STDY7723868,20 pcw,male
21,5317STDY7723869,F_MPP_B9,PLATE 3 - SAMPLE 3,femur MPP B9,X5317STDY7723869,20 pcw,male
22,5317STDY7723870,F_MPP_B10,PLATE 3 - SAMPLE 3,femur MPP B10,X5317STDY7723870,20 pcw,male
23,5317STDY7723871,F_MPP_B11,PLATE 3 - SAMPLE 3,femur MPP B11,X5317STDY7723871,20 pcw,male
24,5317STDY7723872,F_MPP_B12,PLATE 3 - SAMPLE 3,femur MPP B12,X5317STDY7723872,20 pcw,male
25,5317STDY7723873,F_MPP_C1,PLATE 3 - SAMPLE 3,femur MPP C1,X5317STDY7723873,20 pcw,male
26,5317STDY7723874,F_MPP_C2,PLATE 3 - SAMPLE 3,femur MPP C2,X5317STDY7723874,20 pcw,male
27,5317STDY7723875,F_MPP_C3,PLATE 3 - SAMPLE 3,femur MPP C3,X5317STDY7723875,20 pcw,male
28,5317STDY7723876,F_MPP_C4,PLATE 3 - SAMPLE 3,femur MPP C4,X5317STDY7723876,20 pcw,male
29,5317STDY7723877,F_MPP_C5,PLATE 3 - SAMPLE 3,femur MPP C5,X5317STDY7723877,20 pcw,male
30,5317STDY7723878,F_MPP_C6,PLATE 3 - SAMPLE 3,femur MPP C6,X5317STDY7723878,20 pcw,male
31,5317STDY7723879,F_MPP_C7,PLATE 3 - SAMPLE 3,femur MPP C7,X5317STDY7723879,20 pcw,male
32,5317STDY7723880,F_MPP_C8,PLATE 3 - SAMPLE 3,femur MPP C8,X5317STDY7723880,20 pcw,male
33,5317STDY7723881,F_MPP_C9,PLATE 3 - SAMPLE 3,femur MPP C9,X5317STDY7723881,20 pcw,male
34,5317STDY7723882,F_MPP_C10,PLATE 3 - SAMPLE 3,femur MPP C10,X5317STDY7723882,20 pcw,male
35,5317STDY7723883,F_MPP_C11,PLATE 3 - SAMPLE 3,femur MPP C11,X5317STDY7723883,20 pcw,male
36,5317STDY7723884,F_MPP_C12,PLATE 3 - SAMPLE 3,femur MPP C12,X5317STDY7723884,20 pcw,male
37,5317STDY7723885,F_HSC_D1,PLATE 3 - SAMPLE 3,femur HSC D1,X5317STDY7723885,20 pcw,male
38,5317STDY7723886,F_HSC_D2,PLATE 3 - SAMPLE 3,femur HSC D2,X5317STDY7723886,20 pcw,male
39,5317STDY7723887,F_HSC_D3,PLATE 3 - SAMPLE 3,femur HSC D3,X5317STDY7723887,20 pcw,male
40,5317STDY7723888,F_HSC_D4,PLATE 3 - SAMPLE 3,femur HSC D4,X5317STDY7723888,20 pcw,male
41,5317STDY7723889,F_HSC_D5,PLATE 3 - SAMPLE 3,femur HSC D5,X5317STDY7723889,20 pcw,male
42,5317STDY7723890,F_HSC_D6,PLATE 3 - SAMPLE 3,femur HSC D6,X5317STDY7723890,20 pcw,male
43,5317STDY7723891,F_HSC_D7,PLATE 3 - SAMPLE 3,femur HSC D7,X5317STDY7723891,20 pcw,male
44,5317STDY7723892,F_HSC_D8,PLATE 3 - SAMPLE 3,femur HSC D8,X5317STDY7723892,20 pcw,male
45,5317STDY7723893,F_HSC_D9,PLATE 3 - SAMPLE 3,femur HSC D9,X5317STDY7723893,20 pcw,male
46,5317STDY7723894,F_HSC_D10,PLATE 3 - SAMPLE 3,femur HSC D10,X5317STDY7723894,20 pcw,male
47,5317STDY7723895,F_HSC_D11,PLATE 3 - SAMPLE 3,femur HSC D11,X5317STDY7723895,20 pcw,male
48,5317STDY7723896,F_HSC_D12,PLATE 3 - SAMPLE 3,femur HSC D12,X5317STDY7723896,20 pcw,male
49,5317STDY7723897,F_HSC_E1,PLATE 3 - SAMPLE 3,femur HSC E1,X5317STDY7723897,20 pcw,male
50,5317STDY7723898,F_HSC_E2,PLATE 3 - SAMPLE 3,femur HSC E2,X5317STDY7723898,20 pcw,male
51,5317STDY7723899,F_HSC_E3,PLATE 3 - SAMPLE 3,femur HSC E3,X5317STDY7723899,20 pcw,male
52,5317STDY7723900,F_HSC_E4,PLATE 3 - SAMPLE 3,femur HSC E4,X5317STDY7723900,20 pcw,male
53,5317STDY7723901,F_HSC_E5,PLATE 3 - SAMPLE 3,femur HSC E5,X5317STDY7723901,20 pcw,male
54,5317STDY7723902,F_HSC_E6,PLATE 3 - SAMPLE 3,femur HSC E6,X5317STDY7723902,20 pcw,male
55,5317STDY7723903,F_HSC_E7,PLATE 3 - SAMPLE 3,femur HSC E7,X5317STDY7723903,20 pcw,male
56,5317STDY7723904,F_HSC_E8,PLATE 3 - SAMPLE 3,femur HSC E8,X5317STDY7723904,20 pcw,male
57,5317STDY7723905,F_HSC_E9,PLATE 3 - SAMPLE 3,femur HSC E9,X5317STDY7723905,20 pcw,male
58,5317STDY7723906,F_HSC_E10,PLATE 3 - SAMPLE 3,femur HSC E10,X5317STDY7723906,20 pcw,male
59,5317STDY7723907,F_HSC_E11,PLATE 3 - SAMPLE 3,femur HSC E11,X5317STDY7723907,20 pcw,male
60,5317STDY7723908,F_HSC_E12,PLATE 3 - SAMPLE 3,femur HSC E12,X5317STDY7723908,20 pcw,male
61,5317STDY7723909,F_MPP_F1,PLATE 3 - SAMPLE 3,femur MPP F1,X5317STDY7723909,20 pcw,male
62,5317STDY7723910,F_MPP_F2,PLATE 3 - SAMPLE 3,femur MPP F2,X5317STDY7723910,20 pcw,male
63,5317STDY7723911,F_MPP_F3,PLATE 3 - SAMPLE 3,femur MPP F3,X5317STDY7723911,20 pcw,male
64,5317STDY7723912,F_MPP_F4,PLATE 3 - SAMPLE 3,femur MPP F4,X5317STDY7723912,20 pcw,male
65,5317STDY7723913,F_MPP_F5,PLATE 3 - SAMPLE 3,femur MPP F5,X5317STDY7723913,20 pcw,male
66,5317STDY7723914,F_MPP_F6,PLATE 3 - SAMPLE 3,femur MPP F6,X5317STDY7723914,20 pcw,male
67,5317STDY7723915,F_MPP_F7,PLATE 3 - SAMPLE 3,femur MPP F7,X5317STDY7723915,20 pcw,male
68,5317STDY7723916,F_MPP_F8,PLATE 3 - SAMPLE 3,femur MPP F8,X5317STDY7723916,20 pcw,male
69,5317STDY7723917,F_MPP_F9,PLATE 3 - SAMPLE 3,femur MPP F9,X5317STDY7723917,20 pcw,male
70,5317STDY7723918,F_MPP_F10,PLATE 3 - SAMPLE 3,femur MPP F10,X5317STDY7723918,20 pcw,male
71,5317STDY7723919,F_MPP_F11,PLATE 3 - SAMPLE 3,femur MPP F11,X5317STDY7723919,20 pcw,male
72,5317STDY7723920,F_MPP_F12,PLATE 3 - SAMPLE 3,femur MPP F12,X5317STDY7723920,20 pcw,male
73,5317STDY7723921,F_MPP_G1,PLATE 3 - SAMPLE 3,femur MPP G1,X5317STDY7723921,20 pcw,male
74,5317STDY7723922,F_MPP_G2,PLATE 3 - SAMPLE 3,femur MPP G2,X5317STDY7723922,20 pcw,male
75,5317STDY7723923,F_MPP_G3,PLATE 3 - SAMPLE 3,femur MPP G3,X5317STDY7723923,20 pcw,male
76,5317STDY7723924,F_MPP_G4,PLATE 3 - SAMPLE 3,femur MPP G4,X5317STDY7723924,20 pcw,male
77,5317STDY7723925,F_MPP_G5,PLATE 3 - SAMPLE 3,femur MPP G5,X5317STDY7723925,20 pcw,male
78,5317STDY7723926,F_MPP_G6,PLATE 3 - SAMPLE 3,femur MPP G6,X5317STDY7723926,20 pcw,male
79,5317STDY7723927,F_MPP_G7,PLATE 3 - SAMPLE 3,femur MPP G7,X5317STDY7723927,20 pcw,male
80,5317STDY7723928,F_MPP_G8,PLATE 3 - SAMPLE 3,femur MPP G8,X5317STDY7723928,20 pcw,male
81,5317STDY7723929,F_MPP_G9,PLATE 3 - SAMPLE 3,femur MPP G9,X5317STDY7723929,20 pcw,male
82,5317STDY7723930,F_MPP_G10,PLATE 3 - SAMPLE 3,femur MPP G10,X5317STDY7723930,20 pcw,male
83,5317STDY7723931,F_MPP_G11,PLATE 3 - SAMPLE 3,femur MPP G11,X5317STDY7723931,20 pcw,male
84,5317STDY7723932,F_MPP_G12,PLATE 3 - SAMPLE 3,femur MPP G12,X5317STDY7723932,20 pcw,male
85,5317STDY7723933,F_HSC_H1,PLATE 3 - SAMPLE 3,femur HSC H1,X5317STDY7723933,20 pcw,male
86,5317STDY7723934,F_HSC_H2,PLATE 3 - SAMPLE 3,femur HSC H2,X5317STDY7723934,20 pcw,male
87,5317STDY7723935,F_HSC_H3,PLATE 3 - SAMPLE 3,femur HSC H3,X5317STDY7723935,20 pcw,male
88,5317STDY7723936,F_HSC_H4,PLATE 3 - SAMPLE 3,femur HSC H4,X5317STDY7723936,20 pcw,male
89,5317STDY7723937,F_HSC_H5,PLATE 3 - SAMPLE 3,femur HSC H5,X5317STDY7723937,20 pcw,male
90,5317STDY7723938,F_HSC_H6,PLATE 3 - SAMPLE 3,femur HSC H6,X5317STDY7723938,20 pcw,male
91,5317STDY7723939,F_HSC_H7,PLATE 3 - SAMPLE 3,femur HSC H7,X5317STDY7723939,20 pcw,male
92,5317STDY7723940,F_HSC_H8,PLATE 3 - SAMPLE 3,femur HSC H8,X5317STDY7723940,20 pcw,male
93,5317STDY7723941,F_HSC_H9,PLATE 3 - SAMPLE 3,femur HSC H9,X5317STDY7723941,20 pcw,male
94,5317STDY7723942,F_HSC_H10,PLATE 3 - SAMPLE 3,femur HSC H10,X5317STDY7723942,20 pcw,male
95,5317STDY7723943,L_MPP_A1,PLATE 8 - SAMPLE 3,liver MPP A1,X5317STDY7723943,20 pcw,male
96,5317STDY7723944,L_MPP_A2,PLATE 8 - SAMPLE 3,liver MPP A2,X5317STDY7723944,20 pcw,male
97,5317STDY7723945,L_MPP_A3,PLATE 8 - SAMPLE 3,liver MPP A3,X5317STDY7723945,20 pcw,male
98,5317STDY7723946,L_MPP_A4,PLATE 8 - SAMPLE 3,liver MPP A4,X5317STDY7723946,20 pcw,male
99,5317STDY7723947,L_MPP_A5,PLATE 8 - SAMPLE 3,liver MPP A5,X5317STDY7723947,20 pcw,male
100,5317STDY7723948,L_MPP_A6,PLATE 8 - SAMPLE 3,liver MPP A6,X5317STDY7723948,20 pcw,male
101,5317STDY7723949,L_MPP_A7,PLATE 8 - SAMPLE 3,liver MPP A7,X5317STDY7723949,20 pcw,male
102,5317STDY7723950,L_MPP_A8,PLATE 8 - SAMPLE 3,liver MPP A8,X5317STDY7723950,20 pcw,male
103,5317STDY7723951,L_MPP_A9,PLATE 8 - SAMPLE 3,liver MPP A9,X5317STDY7723951,20 pcw,male
104,5317STDY7723952,L_MPP_A10,PLATE 8 - SAMPLE 3,liver MPP A10,X5317STDY7723952,20 pcw,male
105,5317STDY7723953,L_MPP_A11,PLATE 8 - SAMPLE 3,liver MPP A11,X5317STDY7723953,20 pcw,male
106,5317STDY7723954,L_MPP_A12,PLATE 8 - SAMPLE 3,liver MPP A12,X5317STDY7723954,20 pcw,male
107,5317STDY7723955,L_MPP_B1,PLATE 8 - SAMPLE 3,liver MPP B1,X5317STDY7723955,20 pcw,male
108,5317STDY7723956,L_MPP_B2,PLATE 8 - SAMPLE 3,liver MPP B2,X5317STDY7723956,20 pcw,male
109,5317STDY7723957,L_MPP_B3,PLATE 8 - SAMPLE 3,liver MPP B3,X5317STDY7723957,20 pcw,male
110,5317STDY7723958,L_MPP_B4,PLATE 8 - SAMPLE 3,liver MPP B4,X5317STDY7723958,20 pcw,male
111,5317STDY7723959,L_MPP_B5,PLATE 8 - SAMPLE 3,liver MPP B5,X5317STDY7723959,20 pcw,male
112,5317STDY7723960,L_MPP_B6,PLATE 8 - SAMPLE 3,liver MPP B6,X5317STDY7723960,20 pcw,male
113,5317STDY7723961,L_MPP_B7,PLATE 8 - SAMPLE 3,liver MPP B7,X5317STDY7723961,20 pcw,male
114,5317STDY7723962,L_MPP_B8,PLATE 8 - SAMPLE 3,liver MPP B8,X5317STDY7723962,20 pcw,male
115,5317STDY7723963,L_MPP_B9,PLATE 8 - SAMPLE 3,liver MPP B9,X5317STDY7723963,20 pcw,male
116,5317STDY7723964,L_MPP_B10,PLATE 8 - SAMPLE 3,liver MPP B10,X5317STDY7723964,20 pcw,male
117,5317STDY7723965,L_MPP_B11,PLATE 8 - SAMPLE 3,liver MPP B11,X5317STDY7723965,20 pcw,male
118,5317STDY7723966,L_MPP_B12,PLATE 8 - SAMPLE 3,liver MPP B12,X5317STDY7723966,20 pcw,male
119,5317STDY7723967,L_HSC_C1,PLATE 8 - SAMPLE 3,liver HSC C1,X5317STDY7723967,20 pcw,male
120,5317STDY7723968,L_HSC_C2,PLATE 8 - SAMPLE 3,liver HSC C2,X5317STDY7723968,20 pcw,male
121,5317STDY7723969,L_HSC_C3,PLATE 8 - SAMPLE 3,liver HSC C3,X5317STDY7723969,20 pcw,male
122,5317STDY7723970,L_HSC_C4,PLATE 8 - SAMPLE 3,liver HSC C4,X5317STDY7723970,20 pcw,male
123,5317STDY7723971,L_HSC_C5,PLATE 8 - SAMPLE 3,liver HSC C5,X5317STDY7723971,20 pcw,male
124,5317STDY7723972,L_HSC_C6,PLATE 8 - SAMPLE 3,liver HSC C6,X5317STDY7723972,20 pcw,male
125,5317STDY7723973,L_HSC_C7,PLATE 8 - SAMPLE 3,liver HSC C7,X5317STDY7723973,20 pcw,male
126,5317STDY7723974,L_HSC_C8,PLATE 8 - SAMPLE 3,liver HSC C8,X5317STDY7723974,20 pcw,male
127,5317STDY7723975,L_HSC_C9,PLATE 8 - SAMPLE 3,liver HSC C9,X5317STDY7723975,20 pcw,male
128,5317STDY7723976,L_HSC_C10,PLATE 8 - SAMPLE 3,liver HSC C10,X5317STDY7723976,20 pcw,male
129,5317STDY7723977,L_HSC_C11,PLATE 8 - SAMPLE 3,liver HSC C11,X5317STDY7723977,20 pcw,male
130,5317STDY7723978,L_HSC_C12,PLATE 8 - SAMPLE 3,liver HSC C12,X5317STDY7723978,20 pcw,male
131,5317STDY7723979,L_MPP_D1,PLATE 8 - SAMPLE 3,liver MPP D1,X5317STDY7723979,20 pcw,male
132,5317STDY7723980,L_MPP_D2,PLATE 8 - SAMPLE 3,liver MPP D2,X5317STDY7723980,20 pcw,male
133,5317STDY7723981,L_MPP_D3,PLATE 8 - SAMPLE 3,liver MPP D3,X5317STDY7723981,20 pcw,male
134,5317STDY7723982,L_MPP_D4,PLATE 8 - SAMPLE 3,liver MPP D4,X5317STDY7723982,20 pcw,male
135,5317STDY7723983,L_MPP_D5,PLATE 8 - SAMPLE 3,liver MPP D5,X5317STDY7723983,20 pcw,male
136,5317STDY7723984,L_MPP_D6,PLATE 8 - SAMPLE 3,liver MPP D6,X5317STDY7723984,20 pcw,male
137,5317STDY7723985,L_MPP_D7,PLATE 8 - SAMPLE 3,liver MPP D7,X5317STDY7723985,20 pcw,male
138,5317STDY7723986,L_MPP_D8,PLATE 8 - SAMPLE 3,liver MPP D8,X5317STDY7723986,20 pcw,male
139,5317STDY7723987,L_MPP_D9,PLATE 8 - SAMPLE 3,liver MPP D9,X5317STDY7723987,20 pcw,male
140,5317STDY7723988,L_MPP_D10,PLATE 8 - SAMPLE 3,liver MPP D10,X5317STDY7723988,20 pcw,male
141,5317STDY7723989,L_MPP_D11,PLATE 8 - SAMPLE 3,liver MPP D11,X5317STDY7723989,20 pcw,male
142,5317STDY7723990,L_MPP_D12,PLATE 8 - SAMPLE 3,liver MPP D12,X5317STDY7723990,20 pcw,male
143,5317STDY7723991,L_HSC_E1,PLATE 8 - SAMPLE 3,liver HSC E1,X5317STDY7723991,20 pcw,male
144,5317STDY7723992,L_HSC_E2,PLATE 8 - SAMPLE 3,liver HSC E2,X5317STDY7723992,20 pcw,male
145,5317STDY7723993,L_HSC_E3,PLATE 8 - SAMPLE 3,liver HSC E3,X5317STDY7723993,20 pcw,male
146,5317STDY7723994,L_HSC_E4,PLATE 8 - SAMPLE 3,liver HSC E4,X5317STDY7723994,20 pcw,male
147,5317STDY7723995,L_HSC_E5,PLATE 8 - SAMPLE 3,liver HSC E5,X5317STDY7723995,20 pcw,male
148,5317STDY7723996,L_HSC_E6,PLATE 8 - SAMPLE 3,liver HSC E6,X5317STDY7723996,20 pcw,male
149,5317STDY7723997,L_HSC_E7,PLATE 8 - SAMPLE 3,liver HSC E7,X5317STDY7723997,20 pcw,male
150,5317STDY7723998,L_HSC_E8,PLATE 8 - SAMPLE 3,liver HSC E8,X5317STDY7723998,20 pcw,male
151,5317STDY7723999,L_HSC_E9,PLATE 8 - SAMPLE 3,liver HSC E9,X5317STDY7723999,20 pcw,male
152,5317STDY7724000,L_HSC_E10,PLATE 8 - SAMPLE 3,liver HSC E10,X5317STDY7724000,20 pcw,male
153,5317STDY7724001,L_HSC_E11,PLATE 8 - SAMPLE 3,liver HSC E11,X5317STDY7724001,20 pcw,male
154,5317STDY7724002,L_HSC_E12,PLATE 8 - SAMPLE 3,liver HSC E12,X5317STDY7724002,20 pcw,male
155,5317STDY7724003,L_MPP_F1,PLATE 8 - SAMPLE 3,liver MPP F1,X5317STDY7724003,20 pcw,male
156,5317STDY7724004,L_MPP_F2,PLATE 8 - SAMPLE 3,liver MPP F2,X5317STDY7724004,20 pcw,male
157,5317STDY7724005,L_MPP_F3,PLATE 8 - SAMPLE 3,liver MPP F3,X5317STDY7724005,20 pcw,male
158,5317STDY7724006,L_MPP_F4,PLATE 8 - SAMPLE 3,liver MPP F4,X5317STDY7724006,20 pcw,male
159,5317STDY7724007,L_MPP_F5,PLATE 8 - SAMPLE 3,liver MPP F5,X5317STDY7724007,20 pcw,male
160,5317STDY7724008,L_MPP_F6,PLATE 8 - SAMPLE 3,liver MPP F6,X5317STDY7724008,20 pcw,male
161,5317STDY7724009,L_MPP_F7,PLATE 8 - SAMPLE 3,liver MPP F7,X5317STDY7724009,20 pcw,male
162,5317STDY7724010,L_MPP_F8,PLATE 8 - SAMPLE 3,liver MPP F8,X5317STDY7724010,20 pcw,male
163,5317STDY7724011,L_MPP_F9,PLATE 8 - SAMPLE 3,liver MPP F9,X5317STDY7724011,20 pcw,male
164,5317STDY7724012,L_MPP_F10,PLATE 8 - SAMPLE 3,liver MPP F10,X5317STDY7724012,20 pcw,male
165,5317STDY7724013,L_MPP_F11,PLATE 8 - SAMPLE 3,liver MPP F11,X5317STDY7724013,20 pcw,male
166,5317STDY7724014,L_MPP_F12,PLATE 8 - SAMPLE 3,liver MPP F12,X5317STDY7724014,20 pcw,male
167,5317STDY7724015,L_MPP_G1,PLATE 8 - SAMPLE 3,liver MPP G1,X5317STDY7724015,20 pcw,male
168,5317STDY7724016,L_MPP_G2,PLATE 8 - SAMPLE 3,liver MPP G2,X5317STDY7724016,20 pcw,male
169,5317STDY7724017,L_MPP_G3,PLATE 8 - SAMPLE 3,liver MPP G3,X5317STDY7724017,20 pcw,male
170,5317STDY7724018,L_MPP_G4,PLATE 8 - SAMPLE 3,liver MPP G4,X5317STDY7724018,20 pcw,male
171,5317STDY7724019,L_MPP_G5,PLATE 8 - SAMPLE 3,liver MPP G5,X5317STDY7724019,20 pcw,male
172,5317STDY7724020,L_MPP_G6,PLATE 8 - SAMPLE 3,liver MPP G6,X5317STDY7724020,20 pcw,male
173,5317STDY7724021,L_MPP_G7,PLATE 8 - SAMPLE 3,liver MPP G7,X5317STDY7724021,20 pcw,male
174,5317STDY7724022,L_MPP_G8,PLATE 8 - SAMPLE 3,liver MPP G8,X5317STDY7724022,20 pcw,male
175,5317STDY7724023,L_MPP_G9,PLATE 8 - SAMPLE 3,liver MPP G9,X5317STDY7724023,20 pcw,male
176,5317STDY7724024,L_MPP_G10,PLATE 8 - SAMPLE 3,liver MPP G10,X5317STDY7724024,20 pcw,male
177,5317STDY7724025,L_MPP_G11,PLATE 8 - SAMPLE 3,liver MPP G11,X5317STDY7724025,20 pcw,male
178,5317STDY7724026,L_MPP_G12,PLATE 8 - SAMPLE 3,liver MPP G12,X5317STDY7724026,20 pcw,male
179,5317STDY7724027,L_MPP_H1,PLATE 8 - SAMPLE 3,liver MPP H1,X5317STDY7724027,20 pcw,male
180,5317STDY7724028,L_MPP_H2,PLATE 8 - SAMPLE 3,liver MPP H2,X5317STDY7724028,20 pcw,male
181,5317STDY7724029,L_MPP_H3,PLATE 8 - SAMPLE 3,liver MPP H3,X5317STDY7724029,20 pcw,male
182,5317STDY7724030,L_MPP_H4,PLATE 8 - SAMPLE 3,liver MPP H4,X5317STDY7724030,20 pcw,male
183,5317STDY7724031,L_MPP_H5,PLATE 8 - SAMPLE 3,liver MPP H5,X5317STDY7724031,20 pcw,male
184,5317STDY7724032,L_MPP_H6,PLATE 8 - SAMPLE 3,liver MPP H6,X5317STDY7724032,20 pcw,male
185,5317STDY7724033,L_MPP_H7,PLATE 8 - SAMPLE 3,liver MPP H7,X5317STDY7724033,20 pcw,male
186,5317STDY7724034,L_MPP_H8,PLATE 8 - SAMPLE 3,liver MPP H8,X5317STDY7724034,20 pcw,male
187,5317STDY7724035,L_MPP_H9,PLATE 8 - SAMPLE 3,liver MPP H9,X5317STDY7724035,20 pcw,male
188,5317STDY7724036,L_MPP_H10,PLATE 8 - SAMPLE 3,liver MPP H10,X5317STDY7724036,20 pcw,male
189,5317STDY7724037,F_MK-IMM_A1,PLATE 1 - SAMPLE 5,femur MK-IMM A1,X5317STDY7724037,17 pcw,female
190,5317STDY7724038,F_MK-IMM_A2,PLATE 1 - SAMPLE 5,femur MK-IMM A2,X5317STDY7724038,17 pcw,female
191,5317STDY7724039,F_MK-IMM_A3,PLATE 1 - SAMPLE 5,femur MK-IMM A3,X5317STDY7724039,17 pcw,female
192,5317STDY7724040,F_MK-IMM_A4,PLATE 1 - SAMPLE 5,femur MK-IMM A4,X5317STDY7724040,17 pcw,female
193,5317STDY7724041,F_MK-IMM_A5,PLATE 1 - SAMPLE 5,femur MK-IMM A5,X5317STDY7724041,17 pcw,female
194,5317STDY7724042,F_MK-IMM_A6,PLATE 1 - SAMPLE 5,femur MK-IMM A6,X5317STDY7724042,17 pcw,female
195,5317STDY7724043,F_MK-IMM_A7,PLATE 1 - SAMPLE 5,femur MK-IMM A7,X5317STDY7724043,17 pcw,female
196,5317STDY7724044,F_MK-IMM_A8,PLATE 1 - SAMPLE 5,femur MK-IMM A8,X5317STDY7724044,17 pcw,female
197,5317STDY7724045,F_MK-IMM_A9,PLATE 1 - SAMPLE 5,femur MK-IMM A9,X5317STDY7724045,17 pcw,female
198,5317STDY7724046,F_MK-IMM_A10,PLATE 1 - SAMPLE 5,femur MK-IMM A10,X5317STDY7724046,17 pcw,female
199,5317STDY7724047,F_MK-IMM_A11,PLATE 1 - SAMPLE 5,femur MK-IMM A11,X5317STDY7724047,17 pcw,female
200,5317STDY7724048,F_MK-IMM_A12,PLATE 1 - SAMPLE 5,femur MK-IMM A12,X5317STDY7724048,17 pcw,female
201,5317STDY7724049,F_MK-OUR_B1,PLATE 1 - SAMPLE 5,femur MK-OUR B1,X5317STDY7724049,17 pcw,female
202,5317STDY7724050,F_MK-OUR_B2,PLATE 1 - SAMPLE 5,femur MK-OUR B2,X5317STDY7724050,17 pcw,female
203,5317STDY7724051,F_MK-OUR_B3,PLATE 1 - SAMPLE 5,femur MK-OUR B3,X5317STDY7724051,17 pcw,female
204,5317STDY7724052,F_MK-OUR_B4,PLATE 1 - SAMPLE 5,femur MK-OUR B4,X5317STDY7724052,17 pcw,female
205,5317STDY7724053,F_MK-OUR_B5,PLATE 1 - SAMPLE 5,femur MK-OUR B5,X5317STDY7724053,17 pcw,female
206,5317STDY7724054,F_MK-OUR_B6,PLATE 1 - SAMPLE 5,femur MK-OUR B6,X5317STDY7724054,17 pcw,female
207,5317STDY7724055,F_MK-OUR_B7,PLATE 1 - SAMPLE 5,femur MK-OUR B7,X5317STDY7724055,17 pcw,female
208,5317STDY7724056,F_MK-OUR_B8,PLATE 1 - SAMPLE 5,femur MK-OUR B8,X5317STDY7724056,17 pcw,female
209,5317STDY7724057,F_MK-OUR_B9,PLATE 1 - SAMPLE 5,femur MK-OUR B9,X5317STDY7724057,17 pcw,female
210,5317STDY7724058,F_MK-OUR_B10,PLATE 1 - SAMPLE 5,femur MK-OUR B10,X5317STDY7724058,17 pcw,female
211,5317STDY7724059,F_MK-OUR_B11,PLATE 1 - SAMPLE 5,femur MK-OUR B11,X5317STDY7724059,17 pcw,female
212,5317STDY7724060,F_MK-OUR_B12,PLATE 1 - SAMPLE 5,femur MK-OUR B12,X5317STDY7724060,17 pcw,female
213,5317STDY7724061,F_MK-OUR_C1,PLATE 1 - SAMPLE 5,femur MK-OUR C1,X5317STDY7724061,17 pcw,female
214,5317STDY7724062,F_MK-OUR_C2,PLATE 1 - SAMPLE 5,femur MK-OUR C2,X5317STDY7724062,17 pcw,female
215,5317STDY7724063,F_MK-OUR_C3,PLATE 1 - SAMPLE 5,femur MK-OUR C3,X5317STDY7724063,17 pcw,female
216,5317STDY7724064,F_MK-OUR_C4,PLATE 1 - SAMPLE 5,femur MK-OUR C4,X5317STDY7724064,17 pcw,female
217,5317STDY7724065,F_MK-OUR_C5,PLATE 1 - SAMPLE 5,femur MK-OUR C5,X5317STDY7724065,17 pcw,female
218,5317STDY7724066,F_MK-OUR_C6,PLATE 1 - SAMPLE 5,femur MK-OUR C6,X5317STDY7724066,17 pcw,female
219,5317STDY7724067,F_MK-OUR_C7,PLATE 1 - SAMPLE 5,femur MK-OUR C7,X5317STDY7724067,17 pcw,female
220,5317STDY7724068,F_MK-OUR_C8,PLATE 1 - SAMPLE 5,femur MK-OUR C8,X5317STDY7724068,17 pcw,female
221,5317STDY7724069,F_MK-OUR_C9,PLATE 1 - SAMPLE 5,femur MK-OUR C9,X5317STDY7724069,17 pcw,female
222,5317STDY7724070,F_MK-OUR_C10,PLATE 1 - SAMPLE 5,femur MK-OUR C10,X5317STDY7724070,17 pcw,female
223,5317STDY7724071,F_MK-OUR_C11,PLATE 1 - SAMPLE 5,femur MK-OUR C11,X5317STDY7724071,17 pcw,female
224,5317STDY7724072,F_MK-OUR_C12,PLATE 1 - SAMPLE 5,femur MK-OUR C12,X5317STDY7724072,17 pcw,female
225,5317STDY7724073,F_MK-OUR_D1,PLATE 1 - SAMPLE 5,femur MK-OUR D1,X5317STDY7724073,17 pcw,female
226,5317STDY7724074,F_MK-OUR_D2,PLATE 1 - SAMPLE 5,femur MK-OUR D2,X5317STDY7724074,17 pcw,female
227,5317STDY7724075,F_MK-OUR_D3,PLATE 1 - SAMPLE 5,femur MK-OUR D3,X5317STDY7724075,17 pcw,female
228,5317STDY7724076,F_MK-OUR_D4,PLATE 1 - SAMPLE 5,femur MK-OUR D4,X5317STDY7724076,17 pcw,female
229,5317STDY7724077,F_MK-OUR_D5,PLATE 1 - SAMPLE 5,femur MK-OUR D5,X5317STDY7724077,17 pcw,female
230,5317STDY7724078,F_MK-OUR_D6,PLATE 1 - SAMPLE 5,femur MK-OUR D6,X5317STDY7724078,17 pcw,female
231,5317STDY7724079,F_MK-OUR_D7,PLATE 1 - SAMPLE 5,femur MK-OUR D7,X5317STDY7724079,17 pcw,female
232,5317STDY7724080,F_MK-OUR_D8,PLATE 1 - SAMPLE 5,femur MK-OUR D8,X5317STDY7724080,17 pcw,female
233,5317STDY7724081,F_MK-OUR_D9,PLATE 1 - SAMPLE 5,femur MK-OUR D9,X5317STDY7724081,17 pcw,female
234,5317STDY7724082,F_MK-OUR_D10,PLATE 1 - SAMPLE 5,femur MK-OUR D10,X5317STDY7724082,17 pcw,female
235,5317STDY7724083,F_MK-OUR_D11,PLATE 1 - SAMPLE 5,femur MK-OUR D11,X5317STDY7724083,17 pcw,female
236,5317STDY7724084,F_MK-OUR_D12,PLATE 1 - SAMPLE 5,femur MK-OUR D12,X5317STDY7724084,17 pcw,female
237,5317STDY7724085,F_MK-MAT_E1,PLATE 1 - SAMPLE 5,femur MK-MAT E1,X5317STDY7724085,17 pcw,female
238,5317STDY7724086,F_MK-MAT_E2,PLATE 1 - SAMPLE 5,femur MK-MAT E2,X5317STDY7724086,17 pcw,female
239,5317STDY7724087,F_MK-MAT_E3,PLATE 1 - SAMPLE 5,femur MK-MAT E3,X5317STDY7724087,17 pcw,female
240,5317STDY7724088,F_MK-MAT_E4,PLATE 1 - SAMPLE 5,femur MK-MAT E4,X5317STDY7724088,17 pcw,female
241,5317STDY7724089,F_MK-MAT_E5,PLATE 1 - SAMPLE 5,femur MK-MAT E5,X5317STDY7724089,17 pcw,female
242,5317STDY7724090,F_MK-MAT_E6,PLATE 1 - SAMPLE 5,femur MK-MAT E6,X5317STDY7724090,17 pcw,female
243,5317STDY7724091,F_MK-MAT_E7,PLATE 1 - SAMPLE 5,femur MK-MAT E7,X5317STDY7724091,17 pcw,female
244,5317STDY7724092,F_MK-MAT_E8,PLATE 1 - SAMPLE 5,femur MK-MAT E8,X5317STDY7724092,17 pcw,female
245,5317STDY7724093,F_MK-MAT_E9,PLATE 1 - SAMPLE 5,femur MK-MAT E9,X5317STDY7724093,17 pcw,female
246,5317STDY7724094,F_MK-MAT_E10,PLATE 1 - SAMPLE 5,femur MK-MAT E10,X5317STDY7724094,17 pcw,female
247,5317STDY7724095,F_MK-MAT_E11,PLATE 1 - SAMPLE 5,femur MK-MAT E11,X5317STDY7724095,17 pcw,female
248,5317STDY7724096,F_MK-MAT_E12,PLATE 1 - SAMPLE 5,femur MK-MAT E12,X5317STDY7724096,17 pcw,female
249,5317STDY7724097,F_MK-MAT_F1,PLATE 1 - SAMPLE 5,femur MK-MAT F1,X5317STDY7724097,17 pcw,female
250,5317STDY7724098,F_MK-MAT_F2,PLATE 1 - SAMPLE 5,femur MK-MAT F2,X5317STDY7724098,17 pcw,female
251,5317STDY7724099,F_MK-MAT_F3,PLATE 1 - SAMPLE 5,femur MK-MAT F3,X5317STDY7724099,17 pcw,female
252,5317STDY7724100,F_MK-MAT_F4,PLATE 1 - SAMPLE 5,femur MK-MAT F4,X5317STDY7724100,17 pcw,female
253,5317STDY7724101,F_MK-MAT_F5,PLATE 1 - SAMPLE 5,femur MK-MAT F5,X5317STDY7724101,17 pcw,female
254,5317STDY7724102,F_MK-MAT_F6,PLATE 1 - SAMPLE 5,femur MK-MAT F6,X5317STDY7724102,17 pcw,female
255,5317STDY7724103,F_MK-MAT_F7,PLATE 1 - SAMPLE 5,femur MK-MAT F7,X5317STDY7724103,17 pcw,female
256,5317STDY7724104,F_MK-MAT_F8,PLATE 1 - SAMPLE 5,femur MK-MAT F8,X5317STDY7724104,17 pcw,female
257,5317STDY7724105,F_MK-MAT_F9,PLATE 1 - SAMPLE 5,femur MK-MAT F9,X5317STDY7724105,17 pcw,female
258,5317STDY7724106,F_MK-MAT_F10,PLATE 1 - SAMPLE 5,femur MK-MAT F10,X5317STDY7724106,17 pcw,female
259,5317STDY7724107,F_MK-MAT_F11,PLATE 1 - SAMPLE 5,femur MK-MAT F11,X5317STDY7724107,17 pcw,female
260,5317STDY7724108,F_MK-MAT_F12,PLATE 1 - SAMPLE 5,femur MK-MAT F12,X5317STDY7724108,17 pcw,female
261,5317STDY7724109,F_MK-MAT_G1,PLATE 1 - SAMPLE 5,femur MK-MAT G1,X5317STDY7724109,17 pcw,female
262,5317STDY7724110,F_MK-MAT_G2,PLATE 1 - SAMPLE 5,femur MK-MAT G2,X5317STDY7724110,17 pcw,female
263,5317STDY7724111,F_MK-MAT_G3,PLATE 1 - SAMPLE 5,femur MK-MAT G3,X5317STDY7724111,17 pcw,female
264,5317STDY7724112,F_MK-MAT_G4,PLATE 1 - SAMPLE 5,femur MK-MAT G4,X5317STDY7724112,17 pcw,female
265,5317STDY7724113,F_MK-MAT_G5,PLATE 1 - SAMPLE 5,femur MK-MAT G5,X5317STDY7724113,17 pcw,female
266,5317STDY7724114,F_MK-MAT_G6,PLATE 1 - SAMPLE 5,femur MK-MAT G6,X5317STDY7724114,17 pcw,female
267,5317STDY7724115,F_MK-MAT_G7,PLATE 1 - SAMPLE 5,femur MK-MAT G7,X5317STDY7724115,17 pcw,female
268,5317STDY7724116,F_MK-MAT_G8,PLATE 1 - SAMPLE 5,femur MK-MAT G8,X5317STDY7724116,17 pcw,female
269,5317STDY7724117,F_MK-MAT_G9,PLATE 1 - SAMPLE 5,femur MK-MAT G9,X5317STDY7724117,17 pcw,female
270,5317STDY7724118,F_MK-MAT_G10,PLATE 1 - SAMPLE 5,femur MK-MAT G10,X5317STDY7724118,17 pcw,female
271,5317STDY7724119,F_MK-MAT_G11,PLATE 1 - SAMPLE 5,femur MK-MAT G11,X5317STDY7724119,17 pcw,female
272,5317STDY7724120,F_MK-MAT_G12,PLATE 1 - SAMPLE 5,femur MK-MAT G12,X5317STDY7724120,17 pcw,female
273,5317STDY7724121,F_MK-IMM_H1,PLATE 1 - SAMPLE 5,femur MK-IMM H1,X5317STDY7724121,17 pcw,female
274,5317STDY7724122,F_MK-IMM_H2,PLATE 1 - SAMPLE 5,femur MK-IMM H2,X5317STDY7724122,17 pcw,female
275,5317STDY7724123,F_MK-IMM_H3,PLATE 1 - SAMPLE 5,femur MK-IMM H3,X5317STDY7724123,17 pcw,female
276,5317STDY7724124,F_MK-IMM_H4,PLATE 1 - SAMPLE 5,femur MK-IMM H4,X5317STDY7724124,17 pcw,female
277,5317STDY7724125,F_MK-IMM_H5,PLATE 1 - SAMPLE 5,femur MK-IMM H5,X5317STDY7724125,17 pcw,female